{
    "_id": "user123", 
    "firstName": "John",
    "lastName": "Doe",
    "email": "johndoe@mail.com",
    "password": "user123",
    "isAdmin": false,
    "mobileNumber": "091523521323",
    "dateTimeRegistered": "2022-08-15-1811PM"
},
{
    "_id": "user456",
    "firstName": "Jane",
    "lastName": "Doe",
    "email": "janedoe@mail.com",
    "password": "user123",
    "isAdmin": false,
    "mobileNumber": "091554353323",
    "dateTimeRegistered": "2022-08-15-1815PM"
}