{
    "_id": "product123",
    "name": "Wireless Charger",
    "description": "Charge your phone without cables",
    "price": 30,
    "stocks": 88,
    "isActive": true,
    "sku": "SN103456234"
},
{
    "_id": "product456",
    "name": "Type-C Cable",
    "description": "5m long | Good for your phone | As Powerful as Meralco | 1000 watts",
    "price": 50,
    "stocks": 77,
    "isActive": true,
    "sku": "SN903432421"
},
{
    "_id": "product789",
    "name": "iPhone20 Case",
    "description": "Great | Expensive | Not your type",
    "price": 200,
    "stocks": 15,
    "isActive": true,
    "sku": "SN783434231"
}